mkdir tmp
git clone git@gitlab.com:beto/netswithlinux.git
cd netswithlinux/
git checkout -b adri
git branch -u origin/17_adri adri
git pull
mv 00_wiresharkDAVILA.md exercises/00_wireshark.md 
git rm 00_wiresharkDAVILA.md 
git status
git commit -am "arreglado"
git push origin adri:17_adri
ping www.gencat.cat
ping www.bcn.cat



tshark -i enp2s0  -w /tmp/out.pcap
chown beto /tmp/out.pcap 
tshark -r /tmp/out.pcap -o /tmp/procesado.pcap -Y "http"
tshark -r /tmp/out.pcap -w /tmp/procesado.pcap -Y "http"
chown beto /tmp/procesado.pcap 
wireshark /tmp/procesado.pcap 
